{
  "project_info": {
    "project_number": "939731248662",
    "firebase_url": "https://b-smart-home.firebaseio.com",
    "project_id": "b-smart-home",
    "storage_bucket": "b-smart-home.appspot.com"
  },
  "client": [
    {
      "client_info": {
        "mobilesdk_app_id": "1:939731248662:android:a27bef3d86ad552703f737",
        "android_client_info": {
          "package_name": "hu.t_bond.b_smarthome"
        }
      },
      "oauth_client": [
        {
          "client_id": "939731248662-nc5uu3noltjbjmnkil90nkhl4q6qog3a.apps.googleusercontent.com",
          "client_type": 3
        }
      ],
      "api_key": [
        {
          "current_key": "AIzaSyBjxyGUxcq9saa4sil7Hkegwo8Hfj29yRI"
        }
      ],
      "services": {
        "appinvite_service": {
          "other_platform_oauth_client": [
            {
              "client_id": "939731248662-nc5uu3noltjbjmnkil90nkhl4q6qog3a.apps.googleusercontent.com",
              "client_type": 3
            }
          ]
        }
      }
    },
    {
      "client_info": {
        "mobilesdk_app_id": "1:939731248662:android:da2b38f847f0ede503f737",
        "android_client_info": {
          "package_name": "hu.t_bond.b_smarthome.debug"
        }
      },
      "oauth_client": [
        {
          "client_id": "939731248662-nc5uu3noltjbjmnkil90nkhl4q6qog3a.apps.googleusercontent.com",
          "client_type": 3
        }
      ],
      "api_key": [
        {
          "current_key": "AIzaSyBjxyGUxcq9saa4sil7Hkegwo8Hfj29yRI"
        }
      ],
      "services": {
        "appinvite_service": {
          "other_platform_oauth_client": [
            {
              "client_id": "939731248662-nc5uu3noltjbjmnkil90nkhl4q6qog3a.apps.googleusercontent.com",
              "client_type": 3
            }
          ]
        }
      }
    }
  ],
  "configuration_version": "1"
}